7753:A
7373:F
7500:C
1553:G
5668:K
4580:H
5051:A
4145:F
5555:F
4575:B
2409:C
3103:E
4957:B
6817:K
1033:B
2298:C
9003:K
6814:I
3121:A
7631:E
9368:I
8688:H
2873:K
8560:E
2705:J
7174:J
5939:H
9821:J
7796:I
1788:C
7218:D
3837:F
3362:C
3247:H
5941:I
2787:J
6990:F
1968:D
6378:F
8643:E
4461:C
8262:F
5949:F
5107:E
6157:J
3958:D
2784:G
2629:F
4976:E
8844:F
8098:E
5249:C
9160:G
6385:H
3259:E
5365:B
2194:H
6709:I
8331:F
1870:G
2477:G
6555:D
3280:E
1206:G
7986:A
3809:K
4390:A
9038:J
5755:B
4471:A
8166:G
9642:A
4117:A
6277:E
7994:F
6282:H
4543:E
5463:B
2348:K
9917:K
3387:H
9410:K
6092:B
3253:B
6506:B
4246:G
1017:G
9671:K
1946:C
1443:A
6988:A
3026:H
2089:J
4918:G
1082:D
4509:G
5480:B
7115:A
6600:G
6267:G
4266:K
9393:E
5967:F
3351:E
1948:C
9187:K
1127:K
3378:I
8157:J
7627:B
6269:J
2546:B
5333:C
6119:C
9007:B
6842:B
7535:D
3238:F
1380:G
6311:H
8680:I
1665:E
1798:B
4167:B
5383:B
9940:G
2825:A
2393:H
9533:A
8868:J
7619:B
5937:E
3052:C
8456:B
6484:C
4314:B
1626:K
3433:C
9341:E
7988:E
6812:J
9491:E
6826:H
6605:F
8589:K
7964:J
3882:B
3538:A
7246:H
9162:H
3763:C
8861:E
4821:K
5919:C
9976:E
3005:C
4680:A
2550:C
5908:D
9555:C
1520:D
3892:H
7998:K
9945:I
6449:A
1681:G
2573:K
6339:E
6974:E
8319:I
8459:H
8231:F
1975:B
1247:A
5140:B
5390:H
5676:E
3312:H
7733:G
8978:A
7672:B
7226:G
2567:I
8256:I
1032:C
8628:H
4363:J
1109:C
8724:F
7691:B
6852:J
7875:A
8387:H
3220:E
4434:F
4922:I
1448:F
9423:J
1435:K
8265:D
7137:A
8860:F
8306:A
1636:B
1947:H
4782:B
7538:F
4284:D
2849:K
9684:A
5121:G
2861:I
9821:E
1997:A
4127:C
2137:C
2723:C
1633:F
1814:F
2247:D
9154:D
9797:F
8113:F
5872:A
9787:K
2740:J
5559:J
4989:C
9866:B
8944:I
1198:H
8772:J
7010:H
6952:J
7546:I
2890:B
1979:F
1729:B
7893:D
3272:K
3341:D
3624:C
2982:J
4377:D
6956:I
3620:G
6341:B
1695:D
8051:C
3526:D
9434:E
8346:E
9187:F
4057:F
2939:C
1019:A
1147:H
2404:H
1404:K
4234:G
8958:B
5213:E
8526:I
5157:A
7642:G
5045:C
9674:K
5251:I
7517:G
8960:F
4109:E
6754:B
6232:B
3299:A
1556:I
8158:I
3014:B
6886:B
5550:C
3323:K
1963:J
8770:D
1791:I
1959:C
9670:K
9314:B
2841:H
1611:E
9865:H
6107:K
5666:I
8881:A
4766:K
5605:G
9378:D
9836:B
1729:E
2777:H
8035:E
4172:C
7954:D
6626:A
6929:H
2937:K
8754:K
5254:J
8450:E
2005:I
3762:K
3924:K
2645:K
9749:K
5017:B
7510:D
7972:F
7342:J
9180:A
2318:I
9739:G
8665:J
6958:K
4370:I
6640:B
3001:A
1959:I
1225:E
5147:F
4129:I
6950:E
9237:K
3397:A
4784:F
2002:A
1480:D
1362:H
9662:J
7802:K
7721:D
4801:F
3950:H
5041:J
6150:A
5712:A
8564:A
2302:C
9865:D
5682:I
7798:B
8605:K
3685:H
4258:D
6557:A
4793:D
8632:C
7367:H
2914:C
6252:C
2488:E
9888:D
7699:A
3234:D
8368:J
4327:I
9509:D
8500:E
9978:E
1552:D
6137:B
3304:E
9307:E
4344:E
1105:F
4043:J
1372:K
4368:B
9777:K
6033:A
4860:C
3008:B
9936:I
8065:H
3689:C
4694:I
4742:I
3147:B
6926:F
9391:I
4910:F
1123:A
9860:C
2282:B
2163:A
2621:E
9347:B
7706:A
6492:D
4432:F
6183:G
7434:B
9473:C
9261:B
7429:H
9512:F
2605:H
3431:D
8029:A
7884:G
9516:A
1939:D
9599:I
4512:F
2836:D
9375:F
6384:C
6079:J
9333:D
2764:J
8236:K
8431:B
3634:G
8461:E
8666:D
8097:B
1592:H
7702:J
1925:A
8629:D
5916:A
8800:E
9695:F
8785:I
4303:E
6289:J
2822:C
4329:C
9691:B
2502:I
1065:G
2045:J
6404:G
5499:A
4369:I
6703:D
6425:A
8735:A
7818:F
8436:I
9234:A
4347:F
9289:B
3560:K
6529:E
6001:F
8661:B
2916:F
2059:D
1550:D
3631:A
7929:K
2494:D
4218:F
9732:G
2236:B
7138:J
3484:G
5911:D
3682:A
4066:E
5016:F
6937:H
7394:B
5498:B
8339:B
1939:B
5960:J
5231:A
8722:A
6800:E
1910:G
7540:I
3593:J
2910:F
3458:H
2449:J
3848:G
2307:A
9428:I
3964:A
2501:K
8233:D
1422:E
3313:K
2262:G
1172:F
8020:D
8163:C
5789:B
6384:G
9692:B
3747:E
8236:D
7773:B
3269:K
9781:K
6400:G
2245:D
5641:J
4176:A
8856:E
2170:B
4548:F
1852:H
5541:J
2522:B
5412:A
3627:H
5849:K
7517:K
1737:B
9754:I
1146:I
1707:F
9140:G
2503:C
8485:D
8167:F
4401:E
5418:K
1741:I
8680:A
9102:H
6413:D
9699:C
2501:C
8276:B
2926:D
8813:D
7694:K
7066:A
5202:A
3305:I
1448:B
6663:B
8257:A
5304:I
4974:A
2639:K
2654:A
7773:F
8466:J
4770:K
8670:J
5589:C
3340:I
3162:A
2197:E
9399:H
6367:C
3186:H
6414:H
4955:G
9504:C
1641:B
2378:E
8964:H
6832:I
9095:G
4317:I
8888:B
2199:G
9757:I
6949:D
7444:I
3281:K
3327:H
6708:G
9834:F
8682:G
1922:I
2787:G
5268:K
6803:I
6007:A
8343:H
3320:K
6524:B
4616:E
9438:I
7908:B
6345:K
4800:I
6200:D
5344:A
4192:A
1125:I
9000:D
7505:B
5863:C
8135:D
8929:B
7809:C
9895:C
1344:H
8395:C
1570:F
1861:H
3315:F
4181:B
5418:B
7166:K
6054:E
9346:A
6326:A
9583:J
8826:C
5774:E
9641:F
4517:E
5687:A
2608:K
9763:A
2304:C
8155:E
2743:G
5836:B
2879:J
1881:F
6887:B
8855:G
2233:D
5804:B
1587:I
6810:K
8000:D
7579:C
8514:E
1394:E
5902:F
1780:A
4931:E
9089:G
1368:J
3947:J
8138:A
7490:H
2120:K
5105:E
8347:F
2016:D
4276:I
5199:H
8804:H
1284:D
5730:F
2250:H
5173:C
3766:E
3510:H
8958:H
9248:H
4753:C
6311:H
4749:G
1666:A
8089:K
4055:H
8127:A
4098:J
2285:A
4929:K
2961:J
4831:F
1183:K
3779:E
3896:G
7148:F
6312:C
8980:K
7932:I
5333:K
1327:B
5644:J
8984:E
7801:K
5177:D
2568:A
8334:J
5743:K
5367:H
7476:E
9852:D
7099:G
1221:K
8121:B
3251:F
3768:D
4350:I
8615:K
4044:H
7428:G
8475:D
3089:B
8739:K
2393:F
5867:D
4165:E
3574:D
3320:K
6146:F
3307:G
7797:K
7437:J
6740:J
4595:K
1401:B
7304:K
8480:H
7001:C
9566:B
7144:I
7687:H
6394:I
7890:E
9495:J
8939:J
5646:K
7934:C
6002:I
9362:F
3958:J
2394:J
4376:C
3235:C
8204:A
5874:B
5280:C
9398:I
3871:E
7413:E
7829:C
5846:J
4350:B
7410:F
1363:J
5495:B
8410:F
5530:F
9920:J
7265:E
7502:J
4299:K
3990:I
9901:A
5680:H
1897:K
1973:G
6340:E
7991:K
3333:B
1491:F
3557:A
4652:K
5904:F
4901:F
3502:G
3107:G
6973:J
6917:D
9951:D
1137:B
9828:A
1748:K
5612:F
6365:E
9131:F
7350:G
8897:B
6640:I
9165:F
8459:E
5005:B
2087:B
2973:K
8009:D
2113:F
4445:H
7937:A
9549:I
8320:H
6507:C
4841:D
6121:B
1119:D
5098:K
9758:K
3276:K
1987:A
1933:I
5965:A
6767:D
5759:J
4754:A
5724:A
1028:B
7813:I
2559:C
7969:K
1455:I
1218:G
7454:G
6472:G
4262:I
6444:I
2595:K
1979:K
7307:F
5789:B
3194:B
5617:F
9630:F
9751:H
1780:J
6041:J
5573:A
9871:E
3560:B
9781:C
5813:E
8572:I
8219:C
9538:K
4415:B
7878:B
9323:G
9188:C
3694:E
3241:B
3469:D
6012:G
3262:D
4273:K
4892:G
9219:A
3036:E
2198:F
5363:I
7566:J
7426:B
8023:C
5951:K
3250:B
9305:F
1256:A
4927:B
4126:B
6902:B
7317:F
1590:K
9293:B
2207:F
7238:I
7669:C
2139:A
8725:E
2387:E
3083:K
1525:G
6114:A
6871:I
8487:K
6475:B
6098:B
8855:D
3569:K
4264:H
3003:F
3394:A
8734:E
1229:I
8086:G
9912:K
4131:F
5331:A
4317:I
9068:K
4767:B
2816:D
9389:F
4819:C
5827:F
8230:G
5443:E
4348:K
2482:A
3889:A
1744:B
4983:F
4587:C
8183:H
1551:I
1240:K
8356:B
7495:F
5459:A
7020:E
7110:C
8188:G
6612:B
6152:E
1205:H
2258:D
6128:I
4239:D
6735:D
6229:I
5531:G
4922:D
3530:E
7598:H
4241:H
6159:K
3599:C
4175:C
7257:C
5692:C
7299:E
8051:H
5041:D
3058:C
2763:J
2849:E
3318:K
7676:H
7525:B
2000:B
4403:E
6103:E
5787:B
9434:E
1814:B
2402:A
4352:H
9834:H
6664:D
9021:E
2506:C
4784:K
7435:K
7331:J
7312:B
6417:I
4732:K
7137:D
8660:K
3193:A
2680:F
4942:H
7296:C
1883:B
1784:E
1819:C
4706:E
2908:F
1503:I
6906:K
6521:F
4845:A
2256:D
3833:D
2015:D
8648:I
6594:C
4718:I
1670:H
4704:G
3253:F
3369:K
3893:A
4875:K
7724:B
2063:D
9915:A
9385:B
8315:A
9722:K
1848:C
1795:K
5865:K
6236:F
8656:J
1518:J
4140:D
9787:A
1681:E
2120:A
9945:J
3411:J
2073:B
9287:B
6370:B
4465:J
2227:F
6343:C
6832:F
9484:K
8512:I
7210:F
1232:H
6564:G
7088:F
8847:F
5447:A
9533:A
9761:I
8813:B
5593:A
8410:G
3299:K
4654:D
8451:A
9443:I
8844:I
9295:D
2350:G
5497:E
2623:I
9436:E
5492:I
3207:A
6013:K
6702:G
9715:F
8185:E
5838:A
6182:E
1895:F
3205:K
7806:D
4841:D
9009:H
9686:B
7402:E
3251:J
1540:D
5814:B
5914:J
9934:D
3308:A
4905:H
6751:H
3930:G
4383:B
2582:D
5251:H
2572:I
3541:H
2415:D
3317:H
3913:A
4098:K
4077:C
4628:C
8697:B
6856:D
6598:J
2945:I
5294:E
3384:I
5081:I
7815:J
6572:K
1567:B
4919:E
8540:E
2040:E
5962:I
7497:H
3879:K
3107:J
2077:C
2950:K
4105:D
6510:D
8637:J
4259:C
9942:C
6469:A
7275:C
8218:G
3483:J
4758:A
9601:E
4070:K
5631:F
5433:D
8620:A
2315:K
8820:F
2847:H
2898:B
1848:G
8036:F
3756:H
8643:H
4006:G
5150:E
3190:J
1706:A
8583:E
1032:F
7773:E
9323:A
9241:F
7620:A
3275:H
4212:H
4203:K
1125:C
2219:F
6237:G
4485:J
8776:J
4012:B
8298:I
6017:I
4390:F
3077:F
8301:A
7078:D
9726:H
5184:G
6254:F
8881:F
9837:B
5936:J
1997:B
6675:F
9567:B
9124:A
1700:G
1816:E
3004:J
8132:J
3775:F
3380:B
9350:D
4809:D
3741:J
9941:D
2479:J
3078:C
7318:C
2854:K
6589:G
5363:F
9308:I
7503:H
3368:D
7542:H
4796:H
4703:A
8000:E
9522:I
4428:I
5564:D
4065:F
8098:K
2116:H
7975:J
1544:F
2403:B
5399:D
7691:A
5940:E
9271:H
9816:E
1253:I
5456:B
2727:H
6007:H
4802:E
6045:J
4502:G
3716:C
6181:E
6690:K
7114:I
6856:E
2208:I
6942:B
2116:G
7992:B
7448:G
2281:E
6964:K
3003:G
9107:C
7624:E
3175:A
2017:J
8522:I
2112:E
7971:J
9107:D
4729:F
4944:H
4615:G
2679:E
4868:E
9121:K
6974:C
4619:K
6770:B
6023:E
9234:F
5543:B
7531:E
3790:E
1826:I
6869:C
7995:B
9607:H
1078:F
8426:F
3062:K
8771:A
1671:C
5828:I
3548:C
2908:D
1722:B
4067:A
3308:A
6896:A
2131:K
9154:F
8250:K
5975:I
3988:I
7156:I
5914:I
7090:F
3973:K
5409:J
7956:K
4244:C
6603:A
4520:C
5856:H
8658:D
2699:K
7788:G
3137:D
4564:C
7749:J
8090:B
2692:D
3339:G
1699:I
6343:I
6695:F
7195:B
1537:C
2019:I
1476:C
8096:G
9212:H
9034:F
2765:A
8362:I
9533:J
2263:A
9711:I
8059:I
3453:D
3336:E
1689:A
2149:C
1840:K
8287:H
8164:I
6974:J
4036:I
4933:G
8930:A
1565:A
6688:G
4375:D
1160:B
2612:H
9047:E
2467:I
3901:E
5205:C
7860:J
6193:I
4011:E
9327:D
3662:J
5651:K
8043:E
9281:B
6195:C
1943:I
5947:D
7683:D
4014:E
7305:J
6697:A
4673:B
1202:F
2980:H
8670:C
5801:K
6566:E
7840:C
3685:D
4265:B
2216:K
6594:B
6875:D
8196:F
9972:I
8049:G
2286:B
7380:G
9885:G
4852:H
5520:H
1022:A
3000:B
4398:C
9915:C
2683:K
4869:E
4740:A
3213:D
2555:J
4479:F
5948:B
6835:B
3753:H
1057:H
9774:D
8438:J
5676:I
8080:G
3860:B
6931:E
5841:A
3733:A
3506:F
2108:H
7291:H
6858:H
4224:K
9522:C
3605:C
6770:I
3157:J
5268:F
1205:G
4331:D
8571:B
7814:D
2304:F
1116:G
4088:A
6101:F
1274:C
8105:I
6208:I
9687:D
9741:I
4236:J
6173:D
7766:K
4198:G
5467:I
8857:H
6115:B
7629:C
5471:A
1016:G
4668:I
4803:B
5352:G
5393:D
9696:F
8267:I
4275:E
3603:K
4727:A
3363:J
8470:F
5866:K
7516:A
8826:G
4024:B
3097:G
8973:A
5601:F
8531:H
7062:D
4823:K
2084:I
3300:E
5843:F
9940:G
5704:E
9175:B
2745:F
3742:B
1508:H
8341:I
5060:C
5947:H
1714:I
7063:I
1052:I
1920:A
1260:J
1601:J
8968:D
2728:G
1345:F
4634:G
9674:F
1445:H
1647:F
8152:B
4727:I
6931:F
8816:C
5631:F
6870:I
1217:K
1511:E
1656:F
7958:E
8856:A
3681:D
3939:G
1354:G
6548:D
3367:G
2343:F
8998:I
5584:A
3376:I
1982:E
8000:G
1612:I
3753:D
3900:B
3809:H
6248:H
7110:G
6743:H
1108:E
9592:A
7168:G
1221:E
8051:E
7063:I
1230:D
3634:G
3567:H
5629:H
4294:F
3705:J
5566:F
9195:F
9507:G
5608:D
5740:B
2756:D
9013:F
1111:E
7213:E
9876:D
3710:E
6190:G
5294:E
7626:G
4377:F
3292:G
9297:F
7031:I
3099:I
7932:H
8415:K
7941:F
8500:D
4879:A
6893:K
8186:C
8780:A
2103:A
9954:G
6021:J
5200:J
9487:E
5876:D
1861:C
3092:I
8638:K
2584:A
7895:K
2759:A
8434:K
1033:D
6614:J
4076:E
7159:A
3926:K
6714:J
6925:J
3552:H
1182:G
4548:B
9216:B
4682:B
7180:F
6973:K
4220:E
4565:I
3029:H
4668:F
5362:F
8876:A
3598:E
5527:C
6933:H
8537:B
5272:K
7446:G
7148:E
5852:K
6670:C
2356:C
7565:A
3579:B
9155:A
7431:B
7537:H
5689:D
7711:K
7894:C
6309:E
4840:E
6448:J
9095:J
9260:D
5856:C
9267:I
1264:D
3847:I
2456:K
2186:A
4292:F
2247:G
7217:A
6708:D
3219:C
4967:K
1528:I
5890:C
1381:I
5012:I
5819:C
1461:E
3149:G
9446:H
2040:D
4739:B
3055:E
4910:G
4626:I
8330:I
6667:A
2376:H
4030:A
7521:K
2282:G
4144:K
8655:D
4843:F
2998:E
4534:D
9799:K
8180:E
8260:C
5948:H
6352:B
2156:D
6906:E
8100:K
7892:H
5457:G
6635:J
9620:K
2322:B
8054:E
5687:K
9739:K
9626:D
7361:B
8830:A
1315:C
1037:H
1798:F
6164:B
9751:J
8552:I
7678:B
6299:J
7148:H
7127:A
2093:I
4262:C
2961:E
1387:G
4093:G
8929:G
1752:C
9671:B
8581:D
8604:J
2117:K
7524:E
6990:F
6687:G
4619:K
7618:H
1929:G
5261:B
9332:B
9096:E
6876:D
5147:K
8583:K
4040:D
2036:G
7295:B
6529:A
9198:J
7794:F
7883:K
1311:D
9943:D
6824:C
2625:B
4847:J
3716:K
6763:E
6886:H
5820:F
1742:E
3832:D
2624:A
6873:J
8753:H
6512:J
9642:H
1170:E
7083:C
3077:F
2349:K
5864:C
4771:D
5605:B
6790:E
2987:I
5804:K
1756:B
6069:J
5535:J
9849:F
5571:E
1113:J
6162:K
5496:E
8709:A
5254:B
8785:K
6578:D
2958:F
7616:D
2136:J
2806:G
3244:A
1815:C
8185:K
3811:D
8576:K
6195:A
8177:C
1996:A
4931:C
1320:D
6024:B
8643:A
7315:J
1248:F
9231:I
9969:K
8261:A
3869:G
7249:G
5041:K
7754:E
3494:I
4932:H
2442:J
3252:E
2078:D
8871:A
2507:B
8639:H
8402:B
1483:F
6551:K
3722:E
2177:B
5924:D
4513:F
3397:B
5164:D
8615:I
4958:I
9963:G
6221:K
7923:F
8751:I
5935:B
4825:G
3650:E
7406:B
7512:J
6888:B
3830:K
3333:I
3950:K
9281:B
3870:E
3268:B
1316:E
6968:A
3952:K
3738:I
5654:H
1354:C
3278:J
4432:K
9618:I
4925:I
7844:F
6723:H
3017:J
7866:K
3885:A
2201:F
9436:F
6245:D
5978:I
8232:D
7361:A
1481:H
9325:K
9411:B
3637:G
1989:D
1927:B
3831:I
1608:G
9795:J
8168:E
1423:F
1862:I
4430:F
1845:C
8581:E
5770:J
9001:D
7961:I
7626:G
3803:I
2284:F
6198:D
2211:A
5201:J
3944:B
3371:G
7236:F
1535:G
9103:F
3997:I
7462:J
5992:E
8471:A
8807:J
5458:I
9987:C
4318:A
9228:A
4188:C
1960:I
4460:A
8209:G
4651:C
5706:K
4014:B
7406:B
2501:J
5901:C
7390:C
6355:E
5173:J
3726:K
5374:H
5989:E
6119:E
2080:I
9268:H
8968:K
5176:J
4995:D
4260:C
9995:H
1280:K
7069:A
4604:C
1113:G
9097:C
9771:K
3520:K
1684:E
8366:D
6933:J
4700:K
5266:F
1943:E
5727:K
7128:A
9274:H
4970:H
6068:F
3498:E
7941:A
8160:G
1251:C
8826:J
3167:G
4759:E
7572:G
1415:A
3060:H
1076:G
6297:B
3188:I
3757:K
7718:G
9031:A
6463:D
5515:A
7240:G
2172:E
6054:D
4296:K
1293:K
9920:C
4746:G
1979:I
6460:G
8046:B
3221:G
2362:G
5419:J
3289:B
4917:J
4278:J
8932:C
6537:A
3849:H
2292:B
1613:I
8846:F
2568:K
5577:B
9265:D
4529:A
9479:F
5771:D
8586:G
9975:B
6193:A
3116:J
3945:F
7975:D
3118:D
7512:G
3201:D
1105:G
5118:D
2115:D
9249:E
6870:K
8581:I
8477:A
1624:I
5828:A
7270:F
2568:E
5153:K
9057:E
9018:H
1622:E
3238:C
3277:C
9168:E
3197:J
4271:H
9402:D
2460:G
9316:D
3074:I
8541:F
6434:E
6821:I
4105:I
7692:D
9785:I
4075:B
3521:I
4815:K
3554:D
2635:H
9991:F
4088:D
2175:D
4044:F
3427:B
8549:I
8894:F
9192:F
4542:E
6115:I
5518:E
2291:I
5453:G
9730:I
2823:A
8528:A
3325:G
7237:E
1539:E
2281:B
3927:D
5600:B
7337:F
1325:D
7475:J
1178:H
1166:K
9713:B
4638:B
2267:G
3659:J
5626:C
3542:K
5292:E
5740:K
7439:F
2290:A
6643:A
9373:G
7697:A
7116:K
4110:J
8701:F
7171:I
5712:H
8637:K
8596:I
4140:G
3004:E
2914:K
6406:K
3017:A
2112:B
9913:G
6031:H
5670:J
7181:H
7178:D
1310:C
6812:G
3959:E
2796:I
7964:E
6137:C
3261:D
6546:J
4796:K
1941:H
2549:H
2215:E
5690:A
1617:I
4634:I
2051:H
8614:D
9935:B
2520:G
7805:F
1096:F
7559:D
2428:K
2272:I
8435:G
1685:E
3222:K
9640:A
3755:B
2645:H
6512:H
8060:E
6656:G
4810:A
4845:G
1539:C
6451:D
8344:G
5325:D
8936:B
4390:C
4543:J
3149:D
4776:A
5590:G
3576:A
1481:J
6049:H
6626:J
2383:D
9932:B
7379:I
8826:G
6833:E
8204:I
5888:E
3418:A
5637:K
9616:H
4468:H
9558:K
9285:I
2075:D
4943:E
5590:C
1867:A
1856:D
8320:C
6137:C
5446:G
5173:G
1113:E
8867:C
8484:C
1362:E
7655:D
6256:I
9295:F
7233:G
2785:F
3072:K
6387:D
2437:J
7414:H
2803:B
1707:C
6269:K
4705:C
6148:G
8824:E
2295:H
9414:A
3496:I
8388:F
1647:D
3204:K
8829:F
1329:D
3855:D
3210:F
1077:D
1124:C
4166:H
1363:I
5618:A
8125:D
3644:J
8076:D
5553:C
6806:I
9361:B
7347:G
6873:E
1282:D
9395:E
4071:D
8843:D
8005:K
2302:D
9284:G
8617:B
9119:C
1923:H
7014:D
3856:I
5779:C
5748:F
3538:J
9160:G
6209:A
7083:G
5650:H
1416:J
1610:C
9632:I
8383:A
2028:D
5010:H
7642:J
3686:A
8769:C
4989:A
1274:K
9166:J
9949:E
9804:A
9629:A
4606:F
6241:G
4574:H
9984:F
8905:C
7832:F
2602:K
2523:C
3003:C
5999:C
5769:A
8537:J
3882:C
8645:I
1246:C
8732:B
8831:B
5514:A
1151:B
1810:I
2069:C
7105:B
3619:B
5116:E
5758:E
1735:C
8371:C
4252:D
3979:H
1603:H
4843:J
3100:E
6090:F
9886:H
8607:K
2995:C
1343:B
2138:B
3536:D
2328:C
7629:J
4589:A
7535:G
1103:J
1596:K
4829:F
3502:G
4897:C
3290:B
8338:D
9020:H
7485:F
3868:D
8600:B
6847:K
4180:B
6596:A
6804:H
4376:D
4958:I
8585:B
1172:I
4900:J
2375:G
2988:A
2818:D
1408:H
8094:B
9151:B
5799:E
1594:A
6298:E
1862:G
6553:F
1756:B
1477:E
5967:C
5775:G
7890:D
8923:H
9763:B
4305:G
9560:B
9233:C
6100:D
4410:A
4342:D
9984:I
2263:F
5680:C
9598:I
9145:G
3337:D
2528:C
6786:D
9015:B
8236:J
3516:B
1072:I
6298:F
3552:G
2958:E
1415:A
9848:A
9228:F
9364:J
2465:B
5508:E
7572:B
8852:I
8657:F
5937:H
6954:H
9439:A
9852:I
3693:D
9023:I
9871:I
9810:F
8840:E
7112:F
2274:C
9387:F
6156:I
5131:F
1958:F
9083:I
2924:K
3105:K
1637:B
6248:J
9023:F
8604:G
2992:I
6841:H
6139:G
3791:B
2358:J
1862:K
3644:F
5603:B
1483:D
7380:C
9316:K
4622:A
6499:J
5048:D
3994:K
9435:A
4446:H
2760:J
8733:H
1334:G
7475:H
5191:D
7288:C
1958:B
5143:D
4128:H
7669:A
2756:A
2012:K
8991:H
4252:C
7616:B
8237:B
8053:K
2627:K
4225:C
7486:F
9043:A
2740:J
8995:D
4518:C
4275:B
3044:D
4175:K
8966:H
2211:K
9088:H
3864:I
4680:I
8699:J
2263:J
6370:K
3010:K
9212:K
5525:B
8427:H
9507:H
6248:F
2547:G
9812:J
2730:I
1535:F
1450:H
3383:I
5276:F
1286:H
3991:F
8255:F
6516:E
1639:E
2613:I
3933:I
1506:B
1421:A
7704:H
6119:H
1935:C
7366:E
4054:D
6296:E
9821:J
3809:B
5038:A
2284:B
8800:A
5431:C
9130:H
3490:E
5369:H
8268:I
9078:C
8962:G
4199:A
8725:F
8440:B
7183:K
4142:F
7193:C
4344:G
8916:A
6666:A
1610:C
9911:D
7912:I
6434:B
5195:D
6961:J
1339:B
2927:C
9625:J
5669:J
7936:H
8596:C
4147:E
1681:J
5291:E
4997:D
1987:I
3504:C
7138:G
3826:K
3924:C
3597:C
4190:F
7346:H
1084:F
5367:D
2128:B
4722:J
7977:H
1389:H
5758:E
5918:D
7821:E
3009:D
2309:H
4636:C
7260:I
6135:F
9270:A
4366:H
3707:B
7124:E
3419:F
2661:H
4208:G
3809:F
7368:J
4104:K
7022:E
2246:K
5956:C
7725:B
6839:I
4281:D
5959:B
4676:F
7194:F
8935:F
2052:D
9489:K
8636:I
8215:C
8390:H
9424:I
6712:D
2004:A
2324:H
2001:C
6585:A
2097:J
2998:C
4211:A
9541:K
6124:A
1391:E
7554:B
4705:G
8213:D
4547:D
4250:I
7993:D
8485:A
9696:D
3019:K
7822:B
4914:H
4918:J
8125:E
2399:J
7191:A
9025:K
2083:J
6915:G
8166:K
1107:A
3818:E
6531:H
5023:E
7020:G
4008:K
6314:H
9024:E
4068:J
9855:F
2662:K
6781:A
4133:E
8905:I
6198:F
5606:K
6403:D
6779:I
5235:E
5581:G
7541:K
8620:B
1257:C
8975:J
3555:A
9404:K
2669:F
8408:B
3959:D
5567:D
2678:B
6865:H
3606:C
3266:A
6701:I
2099:J
6798:E
7754:K
6142:H
2875:E
6543:B
8929:J
6879:K
2182:H
3844:H
2034:C
1398:H
6035:E
4529:H
3402:I
1853:H
5814:K
8268:K
3167:K
9631:I
6288:K
1541:B
4682:C
9409:E
5522:I
9471:J
2782:G
2788:G
4561:D
5439:D
4720:B
5063:I
8360:B
8610:I
6927:D
4478:B
2211:H
3504:B
2842:K
5608:E
1168:C
7269:F
8527:A
9034:E
7398:H
4788:A
3856:B
6055:F
2967:D
7092:H
7173:H
7753:G
2343:H
8341:D
9990:C
3270:D
8596:K
8489:I
4128:I
1901:F
8973:K
6605:C
4853:A
2176:K
8021:D
5847:B
2894:A
4586:D
4200:B
4823:B
1946:K
4360:A
4018:F
5512:H
8349:D
4218:D
7084:I
9021:E
3988:D
7272:B
6192:B
4134:G
2909:C
4454:K
9762:J
4194:I
7546:E
9666:H
9791:H
8701:H
4444:F
3227:K
5519:G
9185:F
6665:H
8033:J
8755:D
2494:F
6504:D
4569:H
6665:C
7539:B
1897:A
1904:I
2757:K
5540:C
4071:E
6837:D
8616:I
1772:G
9183:A
8673:A
2123:C
9906:E
8616:C
5983:K
9337:H
9901:D
9867:I
4166:H
6298:J
4042:K
7915:B
6732:B
9332:J
7642:G
8355:D
3482:F
3154:C
9486:E
6812:H
5100:J
2863:B
7813:K
4758:C
3520:C
5017:K
7418:J
5931:H
1859:H
3112:D
4520:C
5625:G
3289:D
5150:K
6599:D
3678:B
2420:G
7142:H
3870:G
7684:D
4489:J
9782:J
9504:C
9828:D
5544:A
6911:J
6393:D
6756:D
8874:C
5625:J
5336:H
2539:C
9467:G
5650:C
9421:F
2777:K
5391:D
3109:J
2449:C
7642:G
9734:K
1861:A
4178:I
5953:A
4929:F
5769:I
5990:A
8655:H
9412:A
2975:D
3540:H
1227:B
2364:E
9491:H
9912:F
8248:C
4872:F
8662:D
5342:I
3676:J
4202:G
9089:H
7668:E
3085:B
8533:C
2545:E
1290:H
7428:G
8390:J
8474:A
8122:I
3747:E
2980:C
6150:C
8906:D
9944:H
1017:J
3389:G
9662:E
7282:C
8008:K
3004:F
4144:D
5848:J
8407:B
3928:B
2146:K
8007:B
7284:G
7481:A
2105:B
2450:J
5682:K
3882:J
1017:C
8105:E
4610:H
6372:A
5709:B
6188:G
3532:F
4872:E
2725:D
4079:A
5709:G
8068:F
2023:G
5694:K
6272:E
6034:J
6032:H
6919:H
1216:B
6742:J
9306:A
1252:F
2505:H
4734:H
5854:K
8552:D
5156:E
4314:H
9833:E
1575:B
8657:B
6443:B
7840:I
8000:H
7540:J
1333:D
9797:B
2172:G
2698:A
1358:E
2633:G
1350:F
3339:I
8510:F
8410:G
5474:G
9191:B
1199:F
8396:B
9783:D
5715:C
3805:A
7385:C
9639:H
9411:H
7477:D
7739:G
3708:F
9367:C
1663:G
8614:H
8730:J
4360:F
4636:D
6249:D
1074:K
6145:G
7394:G
4187:F
8490:J
5560:E
2949:J
8583:K
5191:G
5044:F
8454:E
8186:E
8797:K
2438:H
8509:A
1130:A
9330:I
4130:K
9064:A
4198:E
7353:D
3060:H
4524:F
8802:A
8698:C
2037:K
5328:E
3009:F
7421:C
4342:E
3911:D
1027:K
7790:D
5081:I
2020:F
1319:K
4239:I
8069:C
6421:G
8839:K
9755:J
8536:H
1546:I
6288:G
8630:G
2908:C
8212:E
1561:B
9144:A
2380:C
8584:B
5184:I
9905:G
9693:E
9844:A
8858:F
3788:J
1232:G
9982:I
9442:J
1693:H
9060:G
7554:G
5951:E
3757:D
2118:I
9442:D
5296:I
2450:E
6970:E
4853:H
1696:H
8689:G
4808:D
7738:F
7028:E
4750:I
1650:J
8659:K
6697:K
5552:H
3130:A
1653:D
8953:G
1095:I
3182:I
4108:D
3492:K
3127:I
4686:I
8841:H
4153:H
9253:D
8482:J
1973:C
8388:J
1214:H
8565:G
2269:B
5303:B
1844:H
5110:D
6198:J
8715:H
5618:D
9620:H
7111:A
4789:F
4133:B
1935:F
8163:G
9571:C
7043:D
9148:A
4430:B
7974:E
9565:J
5495:A
5021:I
7216:K
9518:G
2631:H
5712:F
3765:C
4539:J
4143:B
2073:K
1923:A
4786:F
3273:A
6116:E
6339:E
2365:C
9075:F
3407:H
9863:G
2126:D
8419:A
7385:J
6764:I
3074:H
7820:B
6876:B
6847:K
4704:C
8393:C
9916:B
8602:F
5089:B
4791:C
8191:E
9133:F
3839:I
9940:E
9844:F
6359:A
4479:C
5524:K
6358:H
4948:C
3497:E
3344:J
7561:K
2517:H
4052:D
6966:I
1473:G
8110:E
1876:D
2118:E
4215:B
6177:K
8758:I
5041:D
3597:I
4581:I
6464:C
1202:K
1126:E
8995:G
6899:F
9302:F
7689:H
9332:C
2523:G
8533:D
5093:C
1622:K
2043:J
1800:K
8948:J
2758:J
4346:C
1195:K
6889:H
3565:A
6698:F
4682:F
6620:G
6389:A
7069:A
7077:H
3178:G
9787:A
6553:G
1989:G
6591:H
8356:K
8059:F
7086:D
7421:H
2201:D
2213:E
4069:A
7340:G
4725:B
9921:E
3346:A
1946:D
7747:A
5404:J
3228:D
3394:H
6914:A
3150:K
9857:C
8119:D
1243:E
7655:J
4757:F
4631:I
3895:K
2977:B
1351:G
9186:G
6347:E
9106:K
9545:A
1273:B
9981:E
7688:A
8263:D
5969:I
3317:E
6372:F
9588:B
4216:G
3207:E
9602:G
9210:B
4572:J
1646:H
1141:F
9720:H
9521:D
4216:C
1701:J
2155:E
3977:E
6430:D
3610:E
8760:F
7219:C
5346:J
4687:G
3557:I
3462:C
6280:B
5114:D
5821:A
8684:D
1983:E
5568:A
5162:I
1898:H
1743:A
2555:J
8371:C
2044:G
7379:C
2485:F
1997:B
3019:D
3486:H
9812:J
3516:H
3120:C
4943:C
9318:I
9481:H
8799:G
7070:A
8516:C
4074:B
8119:J
8806:C
4056:E
9055:G
2319:D
4851:C
5240:H
6520:J
9224:K
4539:K
3762:D
1786:C
6527:B
5815:I
9328:I
3065:E
3177:K
2232:D
8723:K
2381:E
1678:D
5324:D
8922:K
8823:H
2616:C
1896:J
3890:F
5906:C
9635:H
8972:I
1892:E
1764:B
8284:A
7540:I
2683:F
8468:H
5012:G
7540:D
9413:J
4803:H
2188:F
8497:E
6800:A
9853:C
3696:B
9884:I
1292:E
7599:K
9822:E
6639:I
7900:C
2096:J
6718:B
2167:E
9142:I
6665:K
5640:A
4866:A
8600:D
1671:F
7611:J
1688:A
2339:B
4829:J
2154:E
4300:C
2282:I
2749:C
1694:F
2218:F
4569:H
3526:B
8921:K
6016:B
2439:B
6108:H
1582:D
9830:D
3110:J
8420:D
5948:F
4920:I
2848:B
7470:H
6370:F
1080:J
3745:J
7756:G
4762:F
2854:A
8497:C
9879:E
2919:K
1434:F
4201:J
4247:G
1784:I
2598:A
8530:H
5281:G
4389:I
3054:H
3419:J
4336:F
8991:H
5585:G
4114:C
3166:H
1145:B
1911:G
3271:C
9113:E
1931:I
1506:E
4318:I
4329:D
9187:J
4071:K
9891:K
5462:G
9292:D
9660:K
2341:E
4459:I
9712:D
4793:F
5013:H
4399:F
8831:I
1929:D
1326:B
7713:I
5176:H
8919:G
1428:I
9217:G
9517:B
7075:C
9463:H
5236:D
1361:H
5149:C
4703:F
7518:H
9578:C
7574:B
6918:E
3638:I
8449:D
7131:A
9587:B
8447:H
3838:I
2275:C
5995:E
5979:C
9854:A
6222:A
7288:G
4296:G
8503:F
3870:B
2700:B
9589:I
3992:H
9711:C
2348:H
9579:H
3059:C
4583:F
4654:D
2733:B
3661:J
6712:D
2597:I
1170:I
5770:B
1995:F
1314:J
4832:F
7707:D
2189:A
2618:H
7928:J
2937:K
6708:K
9508:F
8894:D
5937:J
6816:E
6785:I
7120:C
8775:H
2012:B
1004:B
9596:F
7581:A
9339:J
5370:I
3676:E
4123:K
4365:F
9745:K
8994:D
5526:A
6017:K
9610:K
6246:C
9139:D
8499:G
4688:I
9685:I
1610:I
2621:H
5215:J
7137:C
7485:G
7791:H
5920:E
5429:F
4672:H
7992:A
2233:A
5680:H
2576:F
9756:E
8247:K
8191:B
1174:H
7174:H
6839:D
6356:B
5979:E
2797:B
5173:F
4603:D
9155:F
5096:F
3509:I
2121:D
6644:E
5275:D
6768:D
1518:C
3565:I
2842:H
8755:G
1289:E
1137:J
8531:D
3926:G
2296:E
9027:G
6486:J
4256:D
9431:J
7010:I
5253:J
9157:J
5205:B
1972:B
2502:F
3282:K
5068:H
2348:J
4838:J
9949:D
4280:I
9237:E
8765:J
2143:D
5900:B
3782:C
4782:B
7707:B
6194:J
2205:H
1181:E
2774:B
5985:G
8918:G
7153:F
7455:D
4862:I
6388:H
2857:D
5382:A
5046:A
2772:B
8433:K
6342:J
2999:C
5942:F
7204:D
9540:G
3484:K
9877:J
1464:B
2319:K
1736:H
3740:C
9167:G
6320:G
8503:I
2520:D
2522:E
2745:F
6738:C
4410:K
8702:E
3024:C
4353:I
4148:G
2456:D
5562:A
2640:I
8865:D
1258:I
1146:I
3020:H
9902:F
4765:E
8529:A
8301:B
5829:B
4687:F
9381:I
3980:H
8815:E
4012:B
3780:I
1091:K
1263:C
1823:J
8599:H
6850:G
9147:F
3912:G
3153:C
4325:J
2356:F
3252:I
9368:A
9864:C
6226:A
6849:H
7072:K
9574:H
4394:H
6817:K
7220:E
9363:B
3378:B
1116:J
6903:C
6775:F
9425:D
9680:C
2748:G
3083:K
2017:B
5730:F
1867:C
2499:E
8543:F
1940:G
1293:D
5588:F
2679:D
1647:A
3428:H
5965:H
3306:I
7111:A
7366:E
6063:A
5033:A
6180:G
7705:G
6111:B
4464:A
4229:I
2694:K
6024:D
6334:E
4036:E
4111:F
5092:I
9401:B
4398:E
3498:C
5722:B
3276:D
7650:F
9805:C
7086:C
6035:J
1695:H
7490:F
8509:A
7827:E
8392:J
9114:D
1311:D
7244:F
7161:D
6643:A
5150:F
7888:G
9832:A
8300:A
5963:F
3683:G
3318:H
3317:F
4118:C
7778:B
8382:A
9130:H
4972:E
3166:C
1515:B
7230:E
1608:K
8968:B
1315:H
4658:B
9460:C
2652:A
9311:B
4877:G
1230:E
3584:A
6618:I
5058:H
9638:B
6491:B
6056:D
8591:G
3588:A
8424:F
6846:E
8954:K
5596:C
7387:H
2806:D
1076:J
5819:E
3400:C
7897:G
2208:G
3432:I
6112:F
8388:G
6498:C
9662:G
7557:E
3126:B
1801:K
7422:B
3410:D
7926:D
3887:E
5599:K
5718:H
5118:H
2821:B
9008:F
8343:J
4332:C
1322:E
7866:G
4425:B
5430:E
7123:J
5976:F
9735:H
8339:K
8849:F
6760:E
8046:H
5542:J
5440:I
4944:F
2646:A
9028:B
4163:I
1459:F
6306:B
6890:K
2067:A
9292:G
4340:A
8433:K
4343:F
2552:F
1828:G
4724:B
8403:D
1774:E
6088:K
2887:I
2547:I
1223:J
8522:F
2311:A
2342:G
5479:J
6495:C
4733:K
8453:K
9812:K
1764:A
9253:I
8539:I
5268:H
8673:E
9329:E
9028:I
6537:H
6367:A
9696:A
9575:C
9206:F
3019:J
7827:K
3190:H
9288:E
2075:K
6644:F
7179:D
4631:B
5357:A
2014:F
3187:A
8588:F
2508:A
6370:B
1748:I
4707:D
2797:I
2590:J
2183:I
5248:K
4755:B
5205:I
4992:C
5731:H
8336:B
7915:E
2067:I
9365:C
5670:B
9992:A
2703:E
4507:F
5655:E
4978:D
4612:H
7952:A
2298:J
4653:B
9454:K
2940:A
8911:E
2828:J
6001:F
9833:F
2559:D
8518:F
7324:H
9433:K
6310:A
7356:H
1088:A
5699:E
4883:F
3343:J
7304:D
1830:I
6436:F
5372:E
1937:I
3834:G
8421:J
4873:E
2200:J
8627:C
3735:G
2391:C
1824:I
2687:J
2978:E
5607:D
9459:H
9604:H
4333:B
8951:D
5206:F
1533:A
1370:J
4804:H
6599:H
5788:B
3773:J
6655:D
4520:J
2495:D
7747:C
6410:A
7979:B
6500:B
6997:D
8978:F
6333:J
8286:F
7876:G
4044:B
7229:J
2304:I
2292:J
1865:G
7835:H
1790:E
8883:F
5756:I
3899:H
7217:H
2824:H
1464:E
7634:F
2345:A
3206:J
8116:A
4365:B
7674:B
2880:J
4992:F
5342:K
7497:E
6540:K
3063:H
3232:H
9078:B
8506:I
5933:A
2968:F
5642:K
2724:J
4336:F
1004:E
7871:H
8725:A
2017:B
3357:F
3293:H
9388:C
4889:E
9718:I
1112:F
9424:H
3590:E
3876:D
5700:I
5211:I
9869:H
7549:B
1236:H
5096:I
4199:A
3363:H
5212:G
5126:K
9430:G
8504:J
2804:J
5252:G
4622:C
7809:G
1853:D
8973:D
1030:D
7005:H
6067:J
1244:K
4527:H
3037:I
3587:B
8822:B
1721:H
3763:B
8636:G
1444:J
1650:I
3213:G
1600:K
8632:J
1776:I
8760:I
8697:K
2020:B
6907:F
1551:G
6798:F
6424:B
3990:K
1699:G
6253:G
4795:E
6253:K
4586:J
1496:A
6454:D
6310:I
9394:H
4498:A
4510:D
4778:E
6548:B
1537:G
1497:K
6450:E
2491:E
9483:D
5645:A
6572:B
7396:H
9778:A
8605:H
2117:A
8742:G
2650:D
5373:J
8637:K
1457:C
2704:J
3723:E
1960:I
1168:K
9314:F
9182:H
5354:J
2088:I
2163:J
6296:H
7112:J
9209:F
1565:C
7262:F
6579:I
7641:F
9222:A
5228:C
3837:K
1638:H
1678:B
9954:J
4483:K
3234:B
7789:A
8556:C
3923:A
9982:F
3775:F
6835:A
4981:E
7906:J
1857:I
6127:D
8700:H
2072:G
6258:F
9134:C
7476:C
2262:D
8173:H
5899:K
7939:J
5146:I
3051:K
4074:B
2737:E
6117:K
5227:H
9896:A
9185:D
1915:J
6444:C
2525:I
3936:G
3607:H
3879:J
7859:J
8131:F
8993:J
4655:B
2205:H
7514:A
1129:K
4418:H
8155:J
7273:A
1946:E
4727:C
5490:K
7979:A
6682:D
2735:I
8230:D
5647:I
4230:H
9333:J
9858:E
2493:B
1000:D
7320:H
6732:D
5479:G
8507:E
5062:D
4163:B
7674:F
6690:H
2656:D
9362:A
1940:J
9502:F
1859:E
8420:I
5973:K
3391:K
8146:A
3551:C
5032:A
8535:B
5326:G
3924:J
2857:I
3709:A
4536:B
9626:A
5789:E
8933:G
7091:C
9511:C
7327:E
9385:K
7748:K
8873:D
7303:I
9125:E
8860:D
3623:H
4794:B
8924:A
8090:A
6522:F
6791:K
7854:A
3394:K
3536:I
7470:A
4004:E
8682:G
8877:K
9000:C
1831:K
8498:H
8857:I
2988:H
7254:F
5489:E
4263:F
8517:D
6150:K
6284:F
9473:A
5566:C
7737:H
8856:G
2303:K
2208:C
8442:J
9301:K
4855:H
5520:A
4469:I
6643:F
6803:D
8548:C
3025:F
3613:I
9920:A
6604:K
9015:K
9090:J
2675:D
1523:B
1730:I
6289:A
8652:G
6844:B
1054:I
4034:D
5836:B
2695:B
7258:H
9097:A
5904:D
4315:K
4208:J
9204:A
2933:C
2995:B
6674:K
2986:A
7827:K
9004:D
9812:A
5211:C
1341:F
3354:B
1606:G
9732:B
4061:D
9856:G
2753:I
1610:I
9945:A
9342:B
9951:H
4043:H
6050:E
1514:D
1260:A
9058:C
8098:F
4738:G
1617:C
2442:D
4475:A
9238:K
5869:F
1599:F
1188:G
2312:H
2780:F
5786:I
1253:F
4220:C
8178:E
1027:J
4759:K
9882:D
7182:F
6670:F
9286:F
7817:E
7041:H
3673:D
4249:C
4612:C
3574:A
1594:K
6542:B
3694:D
9185:J
2786:C
8120:C
1903:E
4042:A
8966:B
4963:B
4070:K
5801:E
6858:G
7444:A
6406:J
3225:C
5854:B
3227:K
5539:C
1127:A
3715:E
2066:F
5068:I
2545:D
3692:I
1340:I
2760:I
3568:F
1535:K
9129:K
1499:J
2968:C
2235:A
3278:D
6720:C
3477:I
9818:B
6007:I
1189:H
6190:I
9142:G
7271:G
3468:E
1148:C
9901:E
3492:J
5606:J
4000:E
8990:B
8429:C
3847:G
2730:I
6778:I
9645:H
9943:G
8950:D
2422:F
2687:E
5749:C
7926:F
7470:K
6561:D
5371:H
1261:D
7689:D
5667:A
2495:I
8280:D
5489:A
8575:E
1213:F
2853:K
7097:G
7144:B
2343:J
7733:E
5687:F
5453:D
2247:F
7323:D
1177:D
3348:E
6353:D
9643:I
9130:E
5217:D
3140:J
1102:C
4307:E
1854:B
7031:G
9451:B
2868:E
8202:E
4581:D
9501:J
5898:J
7357:J
6347:F
7585:J
7144:H
8943:G
9879:C
9518:G
8824:K
8014:A
9648:I
5588:H
2545:J
6766:A
6570:J
7367:F
9312:I
9304:B
3073:D
3220:B
9344:K
9469:K
2490:D
6640:F
8812:J
5914:K
9159:H
4494:J
3905:C
3548:J
6473:H
1487:A
8871:H
6355:A
6430:G
3328:G
1558:D
3448:I
8834:H
9785:H
8595:H
6648:I
5127:D
1747:B
3522:C
2984:C
5879:G
1143:J
7083:E
8736:J
7158:A
1643:I
9182:G
8083:B
7114:C
1541:C
6057:D
2707:B
8484:G
7735:J
8878:H
3118:F
1639:I
1812:J
9247:I
2653:E
4453:B
1751:K
8148:C
1946:F
6615:G
7864:E
1585:I
8711:D
9627:D
7000:I
7595:F
5179:C
2261:H
5457:D
4817:C
1461:I
3377:K
8568:I
7852:B
4241:B
3844:H
7485:H
5185:I
6440:C
1288:E
6576:A
9339:I
7793:A
4158:F
7923:J
5427:G
1949:J
8507:G
7428:C
9570:B
6604:G
1517:H
1401:E
9467:C
3290:G
9029:I
9755:I
3196:I
2262:D
8221:B
6910:B
4075:H
4543:I
8041:F
2789:J
6058:E
4183:H
5135:A
2079:E
8476:A
5090:A
3392:H
7382:I
6256:F
8061:I
8975:F
8285:B
5795:A
4257:F
3374:K
1159:C
3287:F
3142:F
9326:J
6452:E
9913:A
8634:I
9733:F
7325:F
1188:J
9866:G
1279:G
6389:B
2784:H
6909:G
8479:H
9696:C
8199:G
4078:E
7316:D
2460:H
5836:A
9176:A
7583:C
5244:H
2620:E
3641:B
1961:G
5561:J
2486:D
8161:D
5823:F
9713:C
9460:C
5282:G
8711:H
2251:D
4010:H
3799:F
8650:I
2014:K
9332:F
1951:D
3778:J
7183:E
1713:B
8400:C
4435:K
9417:K
3132:B
3622:E
7323:E
3580:E
1839:D
4987:D
7987:A
8504:A
5839:B
7502:F
1469:J
4065:B
2085:B
4734:H
7397:A
4298:G
8689:D
6270:C
7083:D
3292:F
8239:A
2968:K
3685:J
6470:J
4379:C
8396:D
5198:E
4411:H
8558:A
4024:B
8956:D
2457:D
6600:A
4566:H
6475:E
4630:C
9693:H
9179:C
5668:E
7987:G
8171:C
1956:K
3274:J
3299:J
4160:F
3480:A
3233:E
6834:E
2317:J
4803:K
2400:G
6223:F
8063:B
4574:H
4493:D
5356:B
6602:F
3730:C
5957:G
3850:C
4166:A
2364:D
5083:G
5712:D
2820:K
1551:E
6037:F
7675:J
5760:G
8231:K
9188:C
6300:J
5526:I
4610:F
8898:A
1287:J
3894:C
5079:F
4731:H
4840:C
5761:J
1024:H
4014:I
8461:C
9731:I
7385:A
8027:F
2529:F
4233:D
8416:A
3781:A
8188:C
9634:I
2421:G
2855:K
5877:E
1736:G
5513:I
5168:A
9674:C
6629:D
5112:C
7369:A
3996:J
3840:F
3824:C
4427:G
5054:E
5039:A
6690:I
2730:H
5292:K
2933:I
4974:F
8255:B
4310:H
7099:E
5152:J
6639:H
2828:C
8407:F
7239:I
2039:J
6193:I
8058:H
7786:A
4473:I
7345:J
4427:J
2227:C
7605:E
3756:D
7231:D
1614:K
1627:J
6643:G
1354:H
9304:F
5253:G
4312:J
5077:I
5929:E
9823:F
1928:J
2040:G
2412:I
9736:K
4641:J
7494:A
6932:F
3336:G
3134:D
4077:D
9823:C
9346:B
3976:C
9509:D
9308:J
6777:K
5732:G
9542:C
5358:G
5844:J
1417:K
1788:K
4248:F
7323:E
1456:F
3452:E
3968:G
7889:K
6820:B
4990:K
1406:C
5002:B
2626:J
8538:A
3499:D
9772:I
7599:J
8069:I
4205:G
2415:C
8574:B
5483:G
8191:G
5551:C
1985:F
1908:E
1907:J
7694:J
4005:I
6233:C
4417:A
7940:G
5208:J
9285:E
7647:I
4561:C
4604:E
4414:K
9368:J
2415:E
3603:K
7659:D
2519:F
1386:A
4650:K
1517:C
8627:K
7561:G
8752:F
6303:G
1258:G
4596:E
1870:D
7592:F
9760:J
5389:K
9854:A
4878:C
3246:I
9785:I
8781:D
7059:G
1933:I
9518:F
1818:G
7601:B
3634:A
4660:H
7663:D
3839:G
9498:G
4766:J
3781:G
1699:C
4060:B
7808:D
4041:D
6711:I
8388:G
2776:G
6211:A
4958:B
2947:D
5070:E
6659:C
7693:D
8130:G
7533:I
8565:E
6332:F
8078:C
5514:A
4627:D
1748:H
6402:I
4154:C
3583:G
6617:J
2210:G
8893:F
6392:G
3223:H
9860:A
5119:C
6665:G
5383:B
5542:C
8659:D
7383:H
5656:G
1285:G
4224:G
7073:E
9863:F
5906:G
8222:H
2320:J
5010:F
1788:H
9015:H
8718:B
8374:I
8498:K
9376:I
9649:H
4926:C
7519:J
7799:D
3446:C
1413:C
9391:E
6668:C
4368:D
5448:I
9974:A
4946:I
1656:E
7062:E
2733:H
7004:J
5188:H
9753:I
9062:B
2258:H
6066:E
9461:B
1661:A
8740:J
2115:B
4822:H
2487:F
4563:I
6874:E
7835:G
7059:D
6644:H
6388:G
2455:F
3549:B
5638:E
3240:A
3548:F
3720:J
1496:B
8934:F
7640:F
5809:K
8278:K
2273:A
4857:G
2753:B
2843:K
4319:H
5426:J
8649:F
6558:F
9997:E
2246:F
9132:G
8975:D
1893:E
8553:J
9474:G
5792:D
6753:K
2468:B
9497:F
5613:J
1111:D
2880:E
3548:E
6150:K
5172:H
3791:I
8878:A
9706:E
4659:I
2783:A
7813:A
9532:J
9525:C
5848:G
6081:F
4455:F
1904:G
7011:I
8363:B
9531:D
2635:D
8595:G
8929:I
3767:C
7413:B
9421:E
4638:H
7718:D
8938:G
4305:J
7132:K
3821:E
4472:J
6000:G
5499:D
3328:D
6227:A
8165:F
6128:J
4882:A
2759:A
4350:C
6281:B
4355:A
3060:B
4346:J
6830:I
8249:C
1345:K
3499:C
2631:A
8754:H
4091:F
5035:J
7609:H
7334:J
2108:F
2640:F
8267:H
2127:K
1366:K
8265:K
5603:C
9577:B
6623:D
9840:A
1715:D
1620:E
3941:C
2263:I
9048:C
8695:J
4489:G
1845:J
7398:C
8164:E
7765:C
8616:G
8631:J
3761:K
8992:K
4547:F
9011:H
7954:G
8710:C
3839:D
2159:G
1026:E
6698:I
5954:D
8016:H
3905:K
5149:D
5509:D
2502:I
1308:B
9765:B
8343:K
1443:E
5673:J
9865:H
1061:C
7739:E
2522:A
2930:D
6612:A
9188:F
9279:B
3393:A
9618:J
9029:G
3790:K
5685:E
2042:I
6496:J
7685:B
2092:I
9526:J
3481:E
1523:F
7774:A
6317:J
8846:B
1940:E
4182:G
4996:I
6047:B
5204:G
6962:I
1518:I
6093:G
6104:I
9816:C
5814:D
6500:F
5562:A
1961:F
2090:B
4730:I
4931:H
5984:A
8791:F
6895:I
3873:A
8553:I
2345:K
4309:H
3664:F
8044:J
1577:D
8288:C
8586:I
3129:G
5295:I
1165:K
8225:J
6850:F
2887:I
1067:I
3737:C
8334:E
4253:F
9070:G
4713:D
9626:H
9939:F
9857:E
4464:A
3224:G
5503:F
6289:A
6817:F
3961:K
1088:D
4295:D
5537:I
7076:F
4271:G
6675:F
4982:F
4487:I
8464:K
2475:K
9719:K
7626:C
9168:H
1236:J
3984:A
8457:I
5166:G
6861:F
4845:J
7696:J
5100:H
2777:B
6075:B
5454:F
1436:J
2003:E
9732:H
6564:F
5405:D
8297:J
7745:H
8845:H
3285:F
2778:E
8063:D
4766:D
4862:D
5906:C
1725:K
3228:J
4595:K
5539:C
2042:I
8002:K
9217:J
7148:F
6248:J
9514:E
4456:K
8763:B
1261:K
6113:J
8450:C
3324:E
4639:D
5717:I
6352:I
4305:A
7061:F
5472:C
2722:K
5657:A
8898:H
4060:D
3669:H
7371:A
8451:F
8702:H
4891:I
1177:D
2245:A
5044:H
2353:C
5664:G
6482:K
4209:I
3050:H
1100:I
1810:J
1478:E
6342:E
9118:K
4236:I
1824:B
2847:K
6703:F
2788:C
9334:E
7568:C
3380:C
3684:J
6050:C
1774:J
3313:J
2365:H
4117:D
9401:I
6984:E
8004:D
6628:J
1409:A
2201:J
6616:D
1631:C
4626:E
6777:B
5471:F
3390:B
1898:B
4901:D
2678:D
9380:K
3544:J
7029:B
2336:D
5326:D
2101:D
8219:A
4819:D
4370:D
5196:E
7019:I
7232:J
8682:A
3666:G
9675:A
1578:G
6064:J
8912:G
2746:I
8587:E
9426:F
4886:B
9882:E
3123:A
1101:B
2080:G
1759:E
9019:K
7754:D
4290:D
4967:E
2795:I
7685:J
5413:F
6449:D
6282:G
